%YAML 1.1
%TAG !u! tag:unity3d.com,2011:
--- !u!136 &5149346376517284692
CapsuleCollider:
  m_ObjectHideFlags: 0
  m_CorrespondingSourceObject: {fileID: 0}
  m_PrefabInstance: {fileID: 0}
  m_PrefabAsset: {fileID: 0}
  m_GameObject: {fileID: 2405503852505021799}
  m_Material: {fileID: 0}
  m_IsTrigger: 0
  m_Enabled: 1
  m_Radius: 0.62
  m_Height: 1.76
  m_Direction: 0
  m_Center: {x: -0.03, y: 0, z: -0.33}
--- !u!1001 &2405503852504988613
PrefabInstance:
  m_ObjectHideFlags: 0
  serializedVersion: 2
  m_Modification:
    m_TransformParent: {fileID: 0}
    m_Modifications:
    - target: {fileID: 100002, guid: 930814fc347d75e4ba129314b6a7a287, type: 3}
      propertyPath: m_Name
      value: insect03
      objectReference: {fileID: 0}
    - target: {fileID: 400002, guid: 930814fc347d75e4ba129314b6a7a287, type: 3}
      propertyPath: m_LocalPosition.x
      value: 0
      objectReference: {fileID: 0}
    - target: {fileID: 400002, guid: 930814fc347d75e4ba129314b6a7a287, type: 3}
      propertyPath: m_LocalPosition.y
      value: 0
      objectReference: {fileID: 0}
    - target: {fileID: 400002, guid: 930814fc347d75e4ba129314b6a7a287, type: 3}
      propertyPath: m_LocalPosition.z
      value: -5.11
      objectReference: {fileID: 0}
    - target: {fileID: 400002, guid: 930814fc347d75e4ba129314b6a7a287, type: 3}
      propertyPath: m_LocalRotation.x
      value: 0
      objectReference: {fileID: 0}
    - target: {fileID: 400002, guid: 930814fc347d75e4ba129314b6a7a287, type: 3}
      propertyPath: m_LocalRotation.y
      value: 0
      objectReference: {fileID: 0}
    - target: {fileID: 400002, guid: 930814fc347d75e4ba129314b6a7a287, type: 3}
      propertyPath: m_LocalRotation.z
      value: 0
      objectReference: {fileID: 0}
    - target: {fileID: 400002, guid: 930814fc347d75e4ba129314b6a7a287, type: 3}
      propertyPath: m_LocalRotation.w
      value: 1
      objectReference: {fileID: 0}
    - target: {fileID: 400002, guid: 930814fc347d75e4ba129314b6a7a287, type: 3}
      propertyPath: m_RootOrder
      value: 0
      objectReference: {fileID: 0}
    - target: {fileID: 400002, guid: 930814fc347d75e4ba129314b6a7a287, type: 3}
      propertyPath: m_LocalEulerAnglesHint.x
      value: 0
      objectReference: {fileID: 0}
    - target: {fileID: 400002, guid: 930814fc347d75e4ba129314b6a7a287, type: 3}
      propertyPath: m_LocalEulerAnglesHint.y
      value: 0
      objectReference: {fileID: 0}
    - target: {fileID: 400002, guid: 930814fc347d75e4ba129314b6a7a287, type: 3}
      propertyPath: m_LocalEulerAnglesHint.z
      value: 0
      objectReference: {fileID: 0}
    - target: {fileID: 400002, guid: 930814fc347d75e4ba129314b6a7a287, type: 3}
      propertyPath: m_LocalScale.x
      value: 10
      objectReference: {fileID: 0}
    - target: {fileID: 400002, guid: 930814fc347d75e4ba129314b6a7a287, type: 3}
      propertyPath: m_LocalScale.y
      value: 10
      objectReference: {fileID: 0}
    - target: {fileID: 400002, guid: 930814fc347d75e4ba129314b6a7a287, type: 3}
      propertyPath: m_LocalScale.z
      value: 10
      objectReference: {fileID: 0}
    - target: {fileID: 2300000, guid: 930814fc347d75e4ba129314b6a7a287, type: 3}
      propertyPath: m_Materials.Array.data[0]
      value: 
      objectReference: {fileID: 2100000, guid: 6dffe823f0627fe41a47878450d11911, type: 2}
    - target: {fileID: 2300002, guid: 930814fc347d75e4ba129314b6a7a287, type: 3}
      propertyPath: m_Materials.Array.data[0]
      value: 
      objectReference: {fileID: 2100000, guid: 6dffe823f0627fe41a47878450d11911, type: 2}
    - target: {fileID: 2300004, guid: 930814fc347d75e4ba129314b6a7a287, type: 3}
      propertyPath: m_Materials.Array.data[0]
      value: 
      objectReference: {fileID: 2100000, guid: 787b0934383bfec4abd053b5d69d6851, type: 2}
    - target: {fileID: 2300006, guid: 930814fc347d75e4ba129314b6a7a287, type: 3}
      propertyPath: m_Materials.Array.data[0]
      value: 
      objectReference: {fileID: 2100000, guid: 20dde178647da674db076b9689a5b106, type: 2}
    - target: {fileID: 9500000, guid: 930814fc347d75e4ba129314b6a7a287, type: 3}
      propertyPath: m_Controller
      value: 
      objectReference: {fileID: 9100000, guid: 32304582d90e28c4abaf123962119030, type: 2}
    m_RemovedComponents: []
  m_SourcePrefab: {fileID: 100100000, guid: 930814fc347d75e4ba129314b6a7a287, type: 3}
--- !u!1 &2405503852505021799 stripped
GameObject:
  m_CorrespondingSourceObject: {fileID: 100002, guid: 930814fc347d75e4ba129314b6a7a287,
    type: 3}
  m_PrefabInstance: {fileID: 2405503852504988613}
  m_PrefabAsset: {fileID: 0}
