%YAML 1.1
%TAG !u! tag:unity3d.com,2011:
--- !u!1 &5592696881972263471
GameObject:
  m_ObjectHideFlags: 0
  m_CorrespondingSourceObject: {fileID: 0}
  m_PrefabInstance: {fileID: 0}
  m_PrefabAsset: {fileID: 0}
  serializedVersion: 6
  m_Component:
  - component: {fileID: 1136714649395671}
  - component: {fileID: 4530388427049165417}
  - component: {fileID: 5592696881972263470}
  m_Layer: 0
  m_Name: 'pos '
  m_TagString: Untagged
  m_Icon: {fileID: 0}
  m_NavMeshLayer: 0
  m_StaticEditorFlags: 0
  m_IsActive: 1
--- !u!4 &1136714649395671
Transform:
  m_ObjectHideFlags: 0
  m_CorrespondingSourceObject: {fileID: 0}
  m_PrefabInstance: {fileID: 0}
  m_PrefabAsset: {fileID: 0}
  m_GameObject: {fileID: 5592696881972263471}
  m_LocalRotation: {x: 0, y: 0, z: 0, w: 1}
  m_LocalPosition: {x: 0, y: -0.5991, z: 0}
  m_LocalScale: {x: 3, y: 3, z: 3}
  m_Children: []
  m_Father: {fileID: 0}
  m_RootOrder: 0
  m_LocalEulerAnglesHint: {x: 0, y: 0, z: 0}
--- !u!95 &4530388427049165417
Animator:
  serializedVersion: 3
  m_ObjectHideFlags: 0
  m_CorrespondingSourceObject: {fileID: 0}
  m_PrefabInstance: {fileID: 0}
  m_PrefabAsset: {fileID: 0}
  m_GameObject: {fileID: 5592696881972263471}
  m_Enabled: 1
  m_Avatar: {fileID: 0}
  m_Controller: {fileID: 9100000, guid: be8c32b25ad87af4c9067c0c8405c1f4, type: 2}
  m_CullingMode: 0
  m_UpdateMode: 0
  m_ApplyRootMotion: 0
  m_LinearVelocityBlending: 0
  m_WarningMessage: 
  m_HasTransformHierarchy: 1
  m_AllowConstantClipSamplingOptimization: 1
  m_KeepAnimatorControllerStateOnDisable: 0
--- !u!114 &5592696881972263470
MonoBehaviour:
  m_ObjectHideFlags: 0
  m_CorrespondingSourceObject: {fileID: 0}
  m_PrefabInstance: {fileID: 0}
  m_PrefabAsset: {fileID: 0}
  m_GameObject: {fileID: 5592696881972263471}
  m_Enabled: 1
  m_EditorHideFlags: 0
  m_Script: {fileID: 11500000, guid: da2c5346be09ac4419fb32047fa6ddd9, type: 3}
  m_Name: 
  m_EditorClassIdentifier: 
  vege_1: {fileID: 6937838940151228161, guid: 7e315f9218363934ea02ae06328bf8e9, type: 3}
  vege_2: {fileID: 5331055552748103205, guid: 458c8c292390cde4691f1b3fa48e7f9d, type: 3}
  vege_3: {fileID: 2820562805847903805, guid: 40c9f0cd1f3568c46893de911edd1621, type: 3}
  vege: {fileID: 8202972659840226131, guid: f5532ebe94c7133458fd7f3d47e0be3e, type: 3}
