%YAML 1.1
%TAG !u! tag:unity3d.com,2011:
--- !u!1045 &1
EditorBuildSettings:
  m_ObjectHideFlags: 0
  serializedVersion: 2
  m_Scenes:
  - enabled: 1
    path: Assets/JScenes/1.unity
    guid: 45e6770c55dd24649824d4b10ad8c322
  m_configObjects: {}
